-------------------------------------------------------------------------------
Test set: alphabet.SoupTest
-------------------------------------------------------------------------------
Tests run: 2, Failures: 0, Errors: 0, Skipped: 0, Time elapsed: 0.328 s - in alphabet.SoupTest
