-------------------------------------------------------------------------------
Test set: alphabet.AppTest
-------------------------------------------------------------------------------
Tests run: 2, Failures: 0, Errors: 0, Skipped: 0, Time elapsed: 0.344 s - in alphabet.AppTest
